{
  "navigation": {
    "title": "ID External Directory API",
    "name": "id-external-directory-api",
    "url": "/platform/id-external-directory-api/",
    "categories": [
      {
        "title": "Guides",
        "name": "devguide",
        "url": "/platform/id-external-directory-api/",
        "indexLinkTitle": "Latest updates",
        "subcategories": [
          {
            "title": "Templates",
            "name": "templates",
            "expandAlways": true,
            "items": [
              {
                "title": "Concept page",
                "url": "/platform/id-external-directory-api/templates/concept-page-template/"
              },
              {
                "title": "Cookbook page",
                "url": "/platform/id-external-directory-api/templates/cookbook-page-template/"
              },
              {
                "title": "Index page",
                "url": "/platform/id-external-directory-api/templates/index-page-template/"
              },
              {
                "title": "Task page",
                "url": "/platform/id-external-directory-api/templates/task-page-template/"
              },
              {
                "title": "Tutorial page",
                "url": "/platform/id-external-directory-api/templates/tutorial-page-template/"
              }
            ]
          },
          {
            "title": "Security",
            "name": "intro",
            "expandAlways": true,
            "items": [
              {
                "title": "Security overview",
                "url": "/platform/id-external-directory-api/security/overview/"
              },
              {
                "title": "Authentication",
                "url": "/platform/id-external-directory-api/security/authentication/"
              },
              {
                "title": "Authorization",
                "url": "/platform/id-external-directory-api/security/authorization/"
              }
            ]
          }
        ]
      },
      {
        "title": "Reference",
        "name": "reference",
        "url": "/platform/id-external-directory-api/rest/",
        "subcategories": [
          {
            "title": "ID External Directory API REST APIS",
            "name": "rest",
            "expandAlways": true,
            "items": [
              {
                "title": "REST API",
                "url": "/platform/id-external-directory-api/rest/"
              }
            ]
          }
        ]
      },
      {
        "title": "Resources",
        "name": "help",
        "url": "/platform/id-external-directory-api/get-help/"
      }
    ]
  }
}